Stochastic Inventory Modelling: A Tutorial for Dummies using R – Isaac Forzán
…
Show code

# We compute a tibble data frame for a plot
results <- tibble(
  days = 1:n_days,
  on_hand = on_hand,
  backorders = backorders,
  inventory_position = inventory_position,
  demand = d,
  order_qty = orders
)

results |> print(n = 10)

# A tibble: 365 × 6
    days on_hand backorders inventory_position demand order_qty
   <int>   <dbl>      <dbl>              <dbl>  <dbl>     <dbl>
 1     1   4298.          0              5243.    110         0
 2     2   4200.          0              5145.     98         0
 3     3   4109.          0              5054.     91         0
 4     4   3991.          0              4936.    118         0
 5     5   3901.          0              4846.     90         0
 6     6   3845.          0              4790.     56         0
 7     7   3756.          0              4701.     89         0
 8     8   3637.          0              4582.    119         0
 9     9   3510.          0              4455.    127         0
10    10   3415.          0              4360.     95         0
# ℹ 355 more rows
…
